2nd/MUX_2x2/VHDL/simulation/qsim/MUX_2x2.msim.vcd
$comment
	File created using the following command:
		vcd file MUX_2x2.msim.vcd -direction
$end
$date
	Mon Mar 19 16:59:31 2018
$end
$version
	ModelSim Version 10.1d
$end
$timescale
	1ps
$end
$scope module MUX_2x2_vlg_vec_tst $end
$var reg 2 ! A [1:0] $end
$var reg 2 " B [1:0] $end
$var reg 1 # SEL $end
$var wire 1 $ Y [1] $end
$var wire 1 % Y [0] $end
$var wire 1 & sampler $end
$scope module i1 $end
$var wire 1 ' gnd $end
$var wire 1 ( vcc $end
$var wire 1 ) unknown $end
$var tri1 1 * devclrn $end
$var tri1 1 + devpor $end
$var tri1 1 , devoe $end
$var wire 1 - SEL~combout $end
$var wire 1 . Y[0]~0_combout $end
$var wire 1 / Y[1]~1_combout $end
$var wire 1 0 B~combout [1] $end
$var wire 1 1 B~combout [0] $end
$var wire 1 2 A~combout [1] $end
$var wire 1 3 A~combout [0] $end
$upscope $end
$upscope $end
$enddefinitions $end
#0
$dumpvars
b10 !
b10 "
0#
0%
1$
x&
0'
1(
x)
1*
1+
1,
0-
0.
1/
01
10
03
12
$end
#40000
b11 "
11
0&
#75000
1#
1-
1&
1.
1%
#80000
b0 !
b1 !
b10 "
01
13
02
0&
0.
0%
#120000
b0 "
b11 !
b10 !
b1 "
03
12
11
00
1&
1.
0/
1%
0$
#150000
0#
0-
0&
1/
0.
1$
0%
#160000
b11 "
b0 !
b1 !
b10 "
13
02
01
10
1&
1.
0/
1%
0$
#200000
b0 "
b11 !
b1 "
12
11
00
0&
1/
1$
#225000
1#
1-
1&
0/
0$
#240000
b1 !
b0 "
01
02
0&
0.
0%
#280000
b10 "
10
1&
1/
1$
#300000
0#
0-
0&
0/
1.
0$
1%
#320000
b0 !
b0 "
00
03
1&
0.
0%
#360000
b10 !
b10 "
10
12
0&
1/
1$
#375000
1#
1-
1&
#400000
b0 "
00
0&
0/
0$
#440000
b0 !
b10 "
10
02
1&
1/
1$
#450000
0#
0-
0&
0/
0$
#480000
b11 "
b1 !
b1 "
13
11
00
1&
1.
1%
#520000
b0 !
03
0&
0.
0%
#525000
1#
1-
1&
1.
1%
#560000
b10 !
b0 "
01
12
0&
0.
0%
#600000
b10 "
b11 !
0#
13
10
0-
1&
1.
1/
1%
1$
#640000
b11 "
11
0&
#675000
1#
1-
1&
#680000
b10 "
01
0&
0.
0%
#720000
b1 !
02
1&
#750000
0#
0-
0&
0/
1.
0$
1%
#760000
b0 "
b0 !
03
00
1&
0.
0%
#800000
b10 !
b11 !
13
12
0&
1.
1/
1%
1$
#825000
1#
1-
1&
0/
0.
0$
0%
#840000
b1 "
b11 "
11
10
0&
1.
1/
1%
1$
#880000
b1 !
b1 "
00
02
1&
0/
0$
#900000
0#
0-
0&
#920000
b0 !
b11 "
10
03
1&
0.
0%
#960000
b10 !
b11 !
13
12
0&
1.
1/
1%
1$
#975000
1#
1-
1&
#990000
b10 "
b0 "
b1 !
b0 !
0#
03
02
01
00
0-
0&
0.
0/
0%
0$
