4th/multiplexer/simulation/qsim/multiplexer.msim.vcd
$comment
	File created using the following command:
		vcd file multiplexer.msim.vcd -direction
$end
$date
	Tue Apr 10 22:08:51 2018
$end
$version
	ModelSim Version 10.1d
$end
$timescale
	1ps
$end
$scope module multiplexer_vlg_vec_tst $end
$var reg 1 ! A $end
$var reg 1 " B $end
$var reg 1 # SEL $end
$var wire 1 $ Y $end
$var wire 1 % sampler $end
$scope module i1 $end
$var wire 1 & gnd $end
$var wire 1 ' vcc $end
$var wire 1 ( unknown $end
$var tri1 1 ) devclrn $end
$var tri1 1 * devpor $end
$var tri1 1 + devoe $end
$var wire 1 , SEL~combout $end
$var wire 1 - B~combout $end
$var wire 1 . A~combout $end
$var wire 1 / Y~0_combout $end
$upscope $end
$upscope $end
$enddefinitions $end
#0
$dumpvars
0!
0"
0#
0$
x%
0&
1'
x(
1)
1*
1+
0,
0-
0.
0/
$end
#10000
1!
1.
0%
1/
1$
#20000
0!
0.
1%
0/
0$
#25000
1"
1-
0%
#30000
1!
1.
1%
1/
1$
#40000
0!
0.
0%
0/
0$
#50000
0"
1!
0-
1.
1%
1/
1$
#60000
0!
0.
0%
0/
0$
#70000
1!
1.
1%
1/
1$
#75000
1"
1-
0%
#80000
0!
0.
1%
0/
0$
#90000
1!
1.
0%
1/
1$
#100000
1#
0"
0!
1,
0-
0.
1%
0/
0$
#110000
1!
1.
0%
#120000
0!
0.
1%
#125000
1"
1-
0%
1/
1$
#130000
1!
1.
1%
#140000
0!
0.
0%
#150000
0"
1!
0-
1.
1%
0/
0$
#160000
0!
0.
0%
#170000
1!
1.
1%
#175000
1"
1-
0%
1/
1$
#180000
0!
0.
1%
#190000
1!
1.
0%
#200000
0#
0"
0!
0,
0-
0.
1%
0/
0$
#210000
1!
1.
0%
1/
1$
#220000
0!
0.
1%
0/
0$
#225000
1"
1-
0%
#230000
1!
1.
1%
1/
1$
#240000
0!
0.
0%
0/
0$
#250000
0"
1!
0-
1.
1%
1/
1$
#260000
0!
0.
0%
0/
0$
#270000
1!
1.
1%
1/
1$
#275000
1"
1-
0%
#280000
0!
0.
1%
0/
0$
#290000
1!
1.
0%
1/
1$
#300000
1#
0"
0!
1,
0-
0.
1%
0/
0$
#310000
1!
1.
0%
#320000
0!
0.
1%
#325000
1"
1-
0%
1/
1$
#330000
1!
1.
1%
#340000
0!
0.
0%
#350000
0"
1!
0-
1.
1%
0/
0$
#360000
0!
0.
0%
#370000
1!
1.
1%
#375000
1"
1-
0%
1/
1$
#380000
0!
0.
1%
#390000
1!
1.
0%
#400000
0#
0"
0!
0,
0-
0.
1%
0/
0$
#410000
1!
1.
0%
1/
1$
#420000
0!
0.
1%
0/
0$
#425000
1"
1-
0%
#430000
1!
1.
1%
1/
1$
#440000
0!
0.
0%
0/
0$
#450000
0"
1!
0-
1.
1%
1/
1$
#460000
0!
0.
0%
0/
0$
#470000
1!
1.
1%
1/
1$
#475000
1"
1-
0%
#480000
0!
0.
1%
0/
0$
#490000
1!
1.
0%
1/
1$
#500000
1#
0"
0!
1,
0-
0.
1%
0/
0$
#510000
1!
1.
0%
#520000
0!
0.
1%
#525000
1"
1-
0%
1/
1$
#530000
1!
1.
1%
#540000
0!
0.
0%
#550000
0"
1!
0-
1.
1%
0/
0$
#560000
0!
0.
0%
#570000
1!
1.
1%
#575000
1"
1-
0%
1/
1$
#580000
0!
0.
1%
#590000
1!
1.
0%
#600000
0#
0"
0!
0,
0-
0.
1%
0/
0$
#610000
1!
1.
0%
1/
1$
#620000
0!
0.
1%
0/
0$
#625000
1"
1-
0%
#630000
1!
1.
1%
1/
1$
#640000
0!
0.
0%
0/
0$
#650000
0"
1!
0-
1.
1%
1/
1$
#660000
0!
0.
0%
0/
0$
#670000
1!
1.
1%
1/
1$
#675000
1"
1-
0%
#680000
0!
0.
1%
0/
0$
#690000
1!
1.
0%
1/
1$
#700000
1#
0"
0!
1,
0-
0.
1%
0/
0$
#710000
1!
1.
0%
#720000
0!
0.
1%
#725000
1"
1-
0%
1/
1$
#730000
1!
1.
1%
#740000
0!
0.
0%
#750000
0"
1!
0-
1.
1%
0/
0$
#760000
0!
0.
0%
#770000
1!
1.
1%
#775000
1"
1-
0%
1/
1$
#780000
0!
0.
1%
#790000
1!
1.
0%
#800000
0#
0"
0!
0,
0-
0.
1%
0/
0$
#810000
1!
1.
0%
1/
1$
#820000
0!
0.
1%
0/
0$
#825000
1"
1-
0%
#830000
1!
1.
1%
1/
1$
#840000
0!
0.
0%
0/
0$
#850000
0"
1!
0-
1.
1%
1/
1$
#860000
0!
0.
0%
0/
0$
#870000
1!
1.
1%
1/
1$
#875000
1"
1-
0%
#880000
0!
0.
1%
0/
0$
#890000
1!
1.
0%
1/
1$
#900000
1#
0"
0!
1,
0-
0.
1%
0/
0$
#910000
1!
1.
0%
#920000
0!
0.
1%
#925000
1"
1-
0%
1/
1$
#930000
1!
1.
1%
#940000
0!
0.
0%
#950000
0"
1!
0-
1.
1%
0/
0$
#960000
0!
0.
0%
#970000
1!
1.
1%
#975000
1"
1-
0%
1/
1$
#980000
0!
0.
1%
#990000
1!
1.
0%
