4th/fnd_decoder/simulation/qsim/fnd_decoder.msim.vcd
$comment
	File created using the following command:
		vcd file fnd_decoder.msim.vcd -direction
$end
$date
	Tue Apr 10 21:58:36 2018
$end
$version
	ModelSim Version 10.1d
$end
$timescale
	1ps
$end
$scope module fnd_decoder_vlg_vec_tst $end
$var reg 4 ! data [3:0] $end
$var wire 1 " fnd_data [6] $end
$var wire 1 # fnd_data [5] $end
$var wire 1 $ fnd_data [4] $end
$var wire 1 % fnd_data [3] $end
$var wire 1 & fnd_data [2] $end
$var wire 1 ' fnd_data [1] $end
$var wire 1 ( fnd_data [0] $end
$var wire 1 ) sampler $end
$scope module i1 $end
$var wire 1 * gnd $end
$var wire 1 + vcc $end
$var wire 1 , unknown $end
$var tri1 1 - devclrn $end
$var tri1 1 . devpor $end
$var tri1 1 / devoe $end
$var wire 1 0 fnd_data~8_combout $end
$var wire 1 1 fnd_data~9_combout $end
$var wire 1 2 fnd_data~13_combout $end
$var wire 1 3 fnd_data~12_combout $end
$var wire 1 4 fnd_data~10_combout $end
$var wire 1 5 fnd_data~14_combout $end
$var wire 1 6 fnd_data~11_combout $end
$var wire 1 7 data~combout [3] $end
$var wire 1 8 data~combout [2] $end
$var wire 1 9 data~combout [1] $end
$var wire 1 : data~combout [0] $end
$upscope $end
$upscope $end
$enddefinitions $end
#0
$dumpvars
b1110 !
1(
1'
1&
1%
1$
1#
1"
x)
0*
1+
x,
1-
1.
1/
10
11
12
13
14
05
16
0:
19
18
17
$end
#20000
b1010 !
b1000 !
09
08
0)
06
15
04
03
02
01
00
0"
0$
0%
0&
0'
0(
0#
#40000
b1100 !
18
1)
16
05
14
13
12
11
10
1"
1$
1%
1&
1'
1(
1#
#60000
b1110 !
b1010 !
19
08
0)
#80000
b10 !
b11 !
b1 !
b101 !
1:
09
18
07
1)
06
15
03
02
00
0"
0%
0&
0(
0#
#100000
b1101 !
b1100 !
b1110 !
0:
19
17
0)
16
05
13
12
10
1"
1%
1&
1(
1#
#120000
b110 !
b111 !
1:
07
1)
15
02
01
00
0&
0'
0(
0#
#140000
b101 !
b100 !
0:
09
0)
06
10
0"
1(
#160000
b0 !
b1000 !
b1001 !
1:
08
17
1)
03
00
0%
0(
#180000
b1011 !
b1111 !
19
18
0)
16
05
13
12
11
10
1"
1%
1&
1'
1(
1#
#200000
b1110 !
b1100 !
b1000 !
0:
09
08
1)
06
15
04
03
02
01
00
0"
0$
0%
0&
0'
0(
0#
#220000
b0 !
b100 !
18
07
0)
14
13
10
1$
1%
1(
#240000
b101 !
b111 !
b11 !
1:
19
08
1)
05
03
00
0%
0(
1#
#260000
b1 !
09
0)
16
13
10
1"
1%
1(
#280000
b101 !
18
1)
06
15
03
11
00
0"
0%
1'
0(
0#
#300000
b1101 !
b1100 !
0:
17
0)
16
05
13
12
10
1"
1%
1&
1(
1#
#320000
b1101 !
1:
1)
#340000
b1001 !
08
0)
06
15
03
02
01
00
0"
0%
0&
0'
0(
0#
#360000
b1011 !
b11 !
b111 !
19
18
07
1)
16
13
1"
1%
#380000
b110 !
b10 !
0:
08
0)
06
05
04
03
12
0"
0$
0%
1&
1#
#400000
b110 !
18
1)
15
02
11
0&
1'
0#
#420000
b10 !
08
0)
05
12
01
1&
0'
1#
#440000
b1010 !
b1011 !
b1111 !
1:
18
17
1)
16
14
13
11
10
1"
1$
1%
1'
1(
#460000
b111 !
b110 !
b10 !
0:
08
07
0)
06
04
03
01
00
0"
0$
0%
0'
0(
#480000
b110 !
18
1)
15
02
11
0&
1'
0#
#500000
b100 !
09
0)
14
13
01
10
1$
1%
0'
1(
#520000
b1100 !
b1101 !
b1001 !
1:
08
17
1)
03
00
0%
0(
#540000
b1000 !
0:
0)
04
0$
#560000
b1010 !
b10 !
b110 !
b111 !
1:
19
18
07
1)
16
14
13
1"
1$
1%
#580000
b1111 !
b1011 !
08
17
0)
05
12
11
10
1&
1'
1(
1#
#600000
b1001 !
b1000 !
b0 !
b100 !
0:
09
18
07
1)
06
15
02
01
0"
0&
0'
0#
#680000
b110 !
b1110 !
b1010 !
19
08
17
0)
16
05
12
11
1"
1&
1'
1#
#700000
b1000 !
b0 !
09
07
1)
15
04
03
02
01
00
0$
0%
0&
0'
0(
0#
#720000
b1 !
b101 !
b111 !
1:
19
18
0)
14
13
1$
1%
#740000
b1111 !
17
1)
05
12
11
10
1&
1'
1(
1#
#760000
b1011 !
b11 !
08
07
0)
06
03
02
01
00
0"
0%
0&
0'
0(
#780000
b1 !
09
1)
16
13
10
1"
1%
1(
#800000
b101 !
b111 !
19
18
0)
15
00
0(
0#
#820000
b110 !
b10 !
0:
08
1)
06
05
04
03
12
0"
0$
0%
1&
1#
#840000
b0 !
b1 !
b101 !
1:
09
18
0)
15
14
02
11
1$
0&
1'
0#
#860000
b1101 !
b1111 !
b1011 !
19
08
17
1)
16
05
13
12
10
1"
1%
1&
1(
1#
#880000
b1010 !
b10 !
0:
07
0)
06
04
03
01
00
0"
0$
0%
0'
0(
#900000
b0 !
b1 !
1:
09
1)
16
14
13
02
10
1"
1$
1%
0&
1(
#920000
b11 !
b10 !
0:
19
0)
06
04
03
12
00
0"
0$
0%
1&
0(
#940000
b110 !
b1110 !
18
17
1)
16
14
13
11
10
1"
1$
1%
1'
1(
#960000
b1100 !
b1101 !
1:
09
0)
#980000
b101 !
b100 !
0:
07
1)
06
15
02
01
0"
0&
0'
0#
