1st/Schematic/not_gate/simulation/qsim/not_gate.msim.vcd
$comment
	File created using the following command:
		vcd file not_gate.msim.vcd -direction
$end
$date
	Mon Mar 12 11:45:33 2018
$end
$version
	ModelSim Version 10.1d
$end
$timescale
	1ps
$end
$scope module not_gate_vlg_vec_tst $end
$var reg 1 ! pin_name1 $end
$var wire 1 " pin_name2 $end
$var wire 1 # sampler $end
$scope module i1 $end
$var wire 1 $ gnd $end
$var wire 1 % vcc $end
$var wire 1 & unknown $end
$var tri1 1 ' devclrn $end
$var tri1 1 ( devpor $end
$var tri1 1 ) devoe $end
$var wire 1 * pin_name1~combout $end
$upscope $end
$upscope $end
$enddefinitions $end
#0
$dumpvars
0!
x"
x#
0$
1%
x&
1'
1(
1)
0*
$end
#4612
1"
#10000
1!
0#
#10999
1*
#15611
0"
#20000
0!
1#
#20999
0*
#25611
1"
