2nd/MUX_2x2/schemetic/simulation/qsim/MUX_2x2.msim.vcd
$comment
	File created using the following command:
		vcd file MUX_2x2.msim.vcd -direction
$end
$date
	Mon Mar 19 10:59:17 2018
$end
$version
	ModelSim Version 10.1d
$end
$timescale
	1ps
$end
$scope module MUX_2x2_vlg_vec_tst $end
$var reg 1 ! A0 $end
$var reg 1 " A1 $end
$var reg 1 # B0 $end
$var reg 1 $ B1 $end
$var reg 1 % SEL $end
$var wire 1 & Y0 $end
$var wire 1 ' Y1 $end
$var wire 1 ( sampler $end
$scope module i1 $end
$var wire 1 ) gnd $end
$var wire 1 * vcc $end
$var wire 1 + unknown $end
$var tri1 1 , devclrn $end
$var tri1 1 - devpor $end
$var tri1 1 . devoe $end
$var wire 1 / B0~combout $end
$var wire 1 0 SEL~combout $end
$var wire 1 1 A0~combout $end
$var wire 1 2 inst6~0_combout $end
$var wire 1 3 A1~combout $end
$var wire 1 4 B1~combout $end
$var wire 1 5 inst5~0_combout $end
$upscope $end
$upscope $end
$enddefinitions $end
#0
$dumpvars
0!
1"
0#
1$
0%
0&
1'
x(
0)
1*
x+
1,
1-
1.
0/
00
01
02
13
14
15
$end
#40000
0$
04
0(
#80000
1!
0"
11
03
1(
12
05
1&
0'
#100000
1%
10
0(
02
0&
#120000
1"
13
1(
#160000
0!
0"
01
03
0(
#200000
0%
1!
1"
00
11
13
1(
15
12
1'
1&
#240000
0"
03
0(
05
0'
#280000
1#
0!
1"
1/
01
13
1(
02
15
0&
1'
#300000
1%
10
0(
05
12
0'
1&
#320000
1!
0"
11
03
1(
#360000
0#
0!
1"
0/
01
13
0(
02
0&
#400000
0%
1#
0"
00
1/
03
1(
#480000
1$
1!
1"
14
11
13
0(
15
12
1'
1&
#500000
1%
10
1(
#520000
0#
0$
0!
0/
04
01
0(
02
05
0&
0'
#560000
1#
1$
1!
1/
14
11
1(
12
15
1&
1'
#600000
0"
0%
03
00
0(
05
0'
#640000
0$
04
1(
#680000
0!
1$
01
14
0(
02
0&
#700000
1%
10
1(
15
12
1'
1&
#720000
0#
1"
0/
13
0(
02
0&
#760000
0$
04
1(
05
0'
#800000
1!
0%
1#
1$
11
00
1/
14
0(
12
15
1&
1'
#840000
0"
0!
0$
03
01
04
1(
05
02
0'
0&
#880000
0#
0/
0(
