2nd/FND_Decorder/simulation/qsim/FND_Decorder.msim.vcd
$comment
	File created using the following command:
		vcd file FND_Decorder.msim.vcd -direction
$end
$date
	Mon Mar 19 18:35:30 2018
$end
$version
	ModelSim Version 10.1d
$end
$timescale
	1ps
$end
$scope module FND_Decorder_vlg_vec_tst $end
$var reg 4 ! data [3:0] $end
$var wire 1 " fnd_data [6] $end
$var wire 1 # fnd_data [5] $end
$var wire 1 $ fnd_data [4] $end
$var wire 1 % fnd_data [3] $end
$var wire 1 & fnd_data [2] $end
$var wire 1 ' fnd_data [1] $end
$var wire 1 ( fnd_data [0] $end
$var wire 1 ) sampler $end
$scope module i1 $end
$var wire 1 * gnd $end
$var wire 1 + vcc $end
$var wire 1 , unknown $end
$var tri1 1 - devclrn $end
$var tri1 1 . devpor $end
$var tri1 1 / devoe $end
$var wire 1 0 fnd_data~8_combout $end
$var wire 1 1 fnd_data~9_combout $end
$var wire 1 2 fnd_data~13_combout $end
$var wire 1 3 fnd_data~12_combout $end
$var wire 1 4 fnd_data~10_combout $end
$var wire 1 5 fnd_data~14_combout $end
$var wire 1 6 fnd_data~11_combout $end
$var wire 1 7 data~combout [3] $end
$var wire 1 8 data~combout [2] $end
$var wire 1 9 data~combout [1] $end
$var wire 1 : data~combout [0] $end
$upscope $end
$upscope $end
$enddefinitions $end
#0
$dumpvars
b0 !
0(
0'
0&
0%
0$
0#
1"
x)
0*
1+
x,
1-
1.
1/
00
01
02
03
04
15
16
0:
09
08
07
$end
#5000
b1000 !
17
0)
06
0"
#10000
b1100 !
b100 !
18
07
1)
14
13
10
1$
1%
1(
#15000
b1100 !
17
0)
16
05
12
11
1"
1&
1'
1#
#20000
b1110 !
b1010 !
b10 !
19
08
07
1)
06
04
03
01
00
0"
0$
0%
0'
0(
#25000
b1010 !
17
0)
16
14
13
11
10
1"
1$
1%
1'
1(
#30000
b1110 !
b110 !
18
07
1)
06
15
04
03
02
00
0"
0$
0%
0&
0(
0#
#35000
b1110 !
17
0)
16
05
14
13
12
10
1"
1$
1%
1&
1(
1#
#40000
b1111 !
b1101 !
b1001 !
b1 !
1:
09
08
07
1)
02
01
0&
0'
#45000
b1001 !
17
0)
06
15
03
00
0"
0%
0(
0#
#50000
b1101 !
b101 !
18
07
1)
11
1'
#55000
b1101 !
17
0)
16
05
13
12
10
1"
1%
1&
1(
1#
#60000
b1111 !
b1011 !
b11 !
19
08
07
1)
06
03
02
01
00
0"
0%
0&
0'
0(
#65000
b1011 !
17
0)
16
13
12
11
10
1"
1%
1&
1'
1(
#70000
b1111 !
b111 !
18
07
1)
15
02
01
00
0&
0'
0(
0#
#75000
b1111 !
17
0)
05
12
11
10
1&
1'
1(
1#
#80000
b1110 !
b1100 !
b1000 !
b0 !
0:
09
08
07
1)
15
04
03
02
01
00
0$
0%
0&
0'
0(
0#
#85000
b1000 !
17
0)
06
0"
#90000
b1100 !
b100 !
18
07
1)
14
13
10
1$
1%
1(
#95000
b1100 !
17
0)
16
05
12
11
1"
1&
1'
1#
#100000
b1110 !
b1010 !
b10 !
19
08
07
1)
06
04
03
01
00
0"
0$
0%
0'
0(
#105000
b1010 !
17
0)
16
14
13
11
10
1"
1$
1%
1'
1(
#110000
b1110 !
b110 !
18
07
1)
06
15
04
03
02
00
0"
0$
0%
0&
0(
0#
#115000
b1110 !
17
0)
16
05
14
13
12
10
1"
1$
1%
1&
1(
1#
#120000
b1111 !
b1101 !
b1001 !
b1 !
1:
09
08
07
1)
02
01
0&
0'
#125000
b1001 !
17
0)
06
15
03
00
0"
0%
0(
0#
#130000
b1101 !
b101 !
18
07
1)
11
1'
#135000
b1101 !
17
0)
16
05
13
12
10
1"
1%
1&
1(
1#
#140000
b1111 !
b1011 !
b11 !
19
08
07
1)
06
03
02
01
00
0"
0%
0&
0'
0(
#145000
b1011 !
17
0)
16
13
12
11
10
1"
1%
1&
1'
1(
#150000
b1111 !
b111 !
18
07
1)
15
02
01
00
0&
0'
0(
0#
#155000
b1111 !
17
0)
05
12
11
10
1&
1'
1(
1#
#160000
b1110 !
b1100 !
b1000 !
b0 !
0:
09
08
07
1)
15
04
03
02
01
00
0$
0%
0&
0'
0(
0#
#165000
b1000 !
17
0)
06
0"
#170000
b1100 !
b100 !
18
07
1)
14
13
10
1$
1%
1(
#175000
b1100 !
17
0)
16
05
12
11
1"
1&
1'
1#
#180000
b1110 !
b1010 !
b10 !
19
08
07
1)
06
04
03
01
00
0"
0$
0%
0'
0(
#185000
b1010 !
17
0)
16
14
13
11
10
1"
1$
1%
1'
1(
#190000
b1110 !
b110 !
18
07
1)
06
15
04
03
02
00
0"
0$
0%
0&
0(
0#
#195000
b1110 !
17
0)
16
05
14
13
12
10
1"
1$
1%
1&
1(
1#
#200000
b1111 !
b1101 !
b1001 !
b1 !
1:
09
08
07
1)
02
01
0&
0'
#205000
b1001 !
17
0)
06
15
03
00
0"
0%
0(
0#
#210000
b1101 !
b101 !
18
07
1)
11
1'
#215000
b1101 !
17
0)
16
05
13
12
10
1"
1%
1&
1(
1#
#220000
b1111 !
b1011 !
b11 !
19
08
07
1)
06
03
02
01
00
0"
0%
0&
0'
0(
#225000
b1011 !
17
0)
16
13
12
11
10
1"
1%
1&
1'
1(
#230000
b1111 !
b111 !
18
07
1)
15
02
01
00
0&
0'
0(
0#
#235000
b1111 !
17
0)
05
12
11
10
1&
1'
1(
1#
#240000
b1110 !
b1100 !
b1000 !
b0 !
0:
09
08
07
1)
15
04
03
02
01
00
0$
0%
0&
0'
0(
0#
#245000
b1000 !
17
0)
06
0"
#250000
b1100 !
b100 !
18
07
1)
14
13
10
1$
1%
1(
#255000
b1100 !
17
0)
16
05
12
11
1"
1&
1'
1#
#260000
b1110 !
b1010 !
b10 !
19
08
07
1)
06
04
03
01
00
0"
0$
0%
0'
0(
#265000
b1010 !
17
0)
16
14
13
11
10
1"
1$
1%
1'
1(
#270000
b1110 !
b110 !
18
07
1)
06
15
04
03
02
00
0"
0$
0%
0&
0(
0#
#275000
b1110 !
17
0)
16
05
14
13
12
10
1"
1$
1%
1&
1(
1#
#280000
b1111 !
b1101 !
b1001 !
b1 !
1:
09
08
07
1)
02
01
0&
0'
#285000
b1001 !
17
0)
06
15
03
00
0"
0%
0(
0#
#290000
b1101 !
b101 !
18
07
1)
11
1'
#295000
b1101 !
17
0)
16
05
13
12
10
1"
1%
1&
1(
1#
#300000
b1111 !
b1011 !
b11 !
19
08
07
1)
06
03
02
01
00
0"
0%
0&
0'
0(
#305000
b1011 !
17
0)
16
13
12
11
10
1"
1%
1&
1'
1(
#310000
b1111 !
b111 !
18
07
1)
15
02
01
00
0&
0'
0(
0#
#315000
b1111 !
17
0)
05
12
11
10
1&
1'
1(
1#
#320000
b1110 !
b1100 !
b1000 !
b0 !
0:
09
08
07
1)
15
04
03
02
01
00
0$
0%
0&
0'
0(
0#
#325000
b1000 !
17
0)
06
0"
#330000
b1100 !
b100 !
18
07
1)
14
13
10
1$
1%
1(
#335000
b1100 !
17
0)
16
05
12
11
1"
1&
1'
1#
#340000
b1110 !
b1010 !
b10 !
19
08
07
1)
06
04
03
01
00
0"
0$
0%
0'
0(
#345000
b1010 !
17
0)
16
14
13
11
10
1"
1$
1%
1'
1(
#350000
b1110 !
b110 !
18
07
1)
06
15
04
03
02
00
0"
0$
0%
0&
0(
0#
#355000
b1110 !
17
0)
16
05
14
13
12
10
1"
1$
1%
1&
1(
1#
#360000
b1111 !
b1101 !
b1001 !
b1 !
1:
09
08
07
1)
02
01
0&
0'
#365000
b1001 !
17
0)
06
15
03
00
0"
0%
0(
0#
#370000
b1101 !
b101 !
18
07
1)
11
1'
#375000
b1101 !
17
0)
16
05
13
12
10
1"
1%
1&
1(
1#
#380000
b1111 !
b1011 !
b11 !
19
08
07
1)
06
03
02
01
00
0"
0%
0&
0'
0(
#385000
b1011 !
17
0)
16
13
12
11
10
1"
1%
1&
1'
1(
#390000
b1111 !
b111 !
18
07
1)
15
02
01
00
0&
0'
0(
0#
#395000
b1111 !
17
0)
05
12
11
10
1&
1'
1(
1#
#400000
b1110 !
b1100 !
b1000 !
b0 !
0:
09
08
07
1)
15
04
03
02
01
00
0$
0%
0&
0'
0(
0#
#405000
b1000 !
17
0)
06
0"
#410000
b1100 !
b100 !
18
07
1)
14
13
10
1$
1%
1(
#415000
b1100 !
17
0)
16
05
12
11
1"
1&
1'
1#
#420000
b1110 !
b1010 !
b10 !
19
08
07
1)
06
04
03
01
00
0"
0$
0%
0'
0(
#425000
b1010 !
17
0)
16
14
13
11
10
1"
1$
1%
1'
1(
#430000
b1110 !
b110 !
18
07
1)
06
15
04
03
02
00
0"
0$
0%
0&
0(
0#
#435000
b1110 !
17
0)
16
05
14
13
12
10
1"
1$
1%
1&
1(
1#
#440000
b1111 !
b1101 !
b1001 !
b1 !
1:
09
08
07
1)
02
01
0&
0'
#445000
b1001 !
17
0)
06
15
03
00
0"
0%
0(
0#
#450000
b1101 !
b101 !
18
07
1)
11
1'
#455000
b1101 !
17
0)
16
05
13
12
10
1"
1%
1&
1(
1#
#460000
b1111 !
b1011 !
b11 !
19
08
07
1)
06
03
02
01
00
0"
0%
0&
0'
0(
#465000
b1011 !
17
0)
16
13
12
11
10
1"
1%
1&
1'
1(
#470000
b1111 !
b111 !
18
07
1)
15
02
01
00
0&
0'
0(
0#
#475000
b1111 !
17
0)
05
12
11
10
1&
1'
1(
1#
#480000
b1110 !
b1100 !
b1000 !
b0 !
0:
09
08
07
1)
15
04
03
02
01
00
0$
0%
0&
0'
0(
0#
#485000
b1000 !
17
0)
06
0"
#490000
b1100 !
b100 !
18
07
1)
14
13
10
1$
1%
1(
#495000
b1100 !
17
0)
16
05
12
11
1"
1&
1'
1#
#500000
b1110 !
b1010 !
b10 !
19
08
07
1)
06
04
03
01
00
0"
0$
0%
0'
0(
#505000
b1010 !
17
0)
16
14
13
11
10
1"
1$
1%
1'
1(
#510000
b1110 !
b110 !
18
07
1)
06
15
04
03
02
00
0"
0$
0%
0&
0(
0#
#515000
b1110 !
17
0)
16
05
14
13
12
10
1"
1$
1%
1&
1(
1#
#520000
b1111 !
b1101 !
b1001 !
b1 !
1:
09
08
07
1)
02
01
0&
0'
#525000
b1001 !
17
0)
06
15
03
00
0"
0%
0(
0#
#530000
b1101 !
b101 !
18
07
1)
11
1'
#535000
b1101 !
17
0)
16
05
13
12
10
1"
1%
1&
1(
1#
#540000
b1111 !
b1011 !
b11 !
19
08
07
1)
06
03
02
01
00
0"
0%
0&
0'
0(
#545000
b1011 !
17
0)
16
13
12
11
10
1"
1%
1&
1'
1(
#550000
b1111 !
b111 !
18
07
1)
15
02
01
00
0&
0'
0(
0#
#555000
b1111 !
17
0)
05
12
11
10
1&
1'
1(
1#
#560000
b1110 !
b1100 !
b1000 !
b0 !
0:
09
08
07
1)
15
04
03
02
01
00
0$
0%
0&
0'
0(
0#
#565000
b1000 !
17
0)
06
0"
#570000
b1100 !
b100 !
18
07
1)
14
13
10
1$
1%
1(
#575000
b1100 !
17
0)
16
05
12
11
1"
1&
1'
1#
#580000
b1110 !
b1010 !
b10 !
19
08
07
1)
06
04
03
01
00
0"
0$
0%
0'
0(
#585000
b1010 !
17
0)
16
14
13
11
10
1"
1$
1%
1'
1(
#590000
b1110 !
b110 !
18
07
1)
06
15
04
03
02
00
0"
0$
0%
0&
0(
0#
#595000
b1110 !
17
0)
16
05
14
13
12
10
1"
1$
1%
1&
1(
1#
#600000
b1111 !
b1101 !
b1001 !
b1 !
1:
09
08
07
1)
02
01
0&
0'
#605000
b1001 !
17
0)
06
15
03
00
0"
0%
0(
0#
#610000
b1101 !
b101 !
18
07
1)
11
1'
#615000
b1101 !
17
0)
16
05
13
12
10
1"
1%
1&
1(
1#
#620000
b1111 !
b1011 !
b11 !
19
08
07
1)
06
03
02
01
00
0"
0%
0&
0'
0(
#625000
b1011 !
17
0)
16
13
12
11
10
1"
1%
1&
1'
1(
#630000
b1111 !
b111 !
18
07
1)
15
02
01
00
0&
0'
0(
0#
#635000
b1111 !
17
0)
05
12
11
10
1&
1'
1(
1#
#640000
b1110 !
b1100 !
b1000 !
b0 !
0:
09
08
07
1)
15
04
03
02
01
00
0$
0%
0&
0'
0(
0#
#645000
b1000 !
17
0)
06
0"
#650000
b1100 !
b100 !
18
07
1)
14
13
10
1$
1%
1(
#655000
b1100 !
17
0)
16
05
12
11
1"
1&
1'
1#
#660000
b1110 !
b1010 !
b10 !
19
08
07
1)
06
04
03
01
00
0"
0$
0%
0'
0(
#665000
b1010 !
17
0)
16
14
13
11
10
1"
1$
1%
1'
1(
#670000
b1110 !
b110 !
18
07
1)
06
15
04
03
02
00
0"
0$
0%
0&
0(
0#
#675000
b1110 !
17
0)
16
05
14
13
12
10
1"
1$
1%
1&
1(
1#
#680000
b1111 !
b1101 !
b1001 !
b1 !
1:
09
08
07
1)
02
01
0&
0'
#685000
b1001 !
17
0)
06
15
03
00
0"
0%
0(
0#
#690000
b1101 !
b101 !
18
07
1)
11
1'
#695000
b1101 !
17
0)
16
05
13
12
10
1"
1%
1&
1(
1#
#700000
b1111 !
b1011 !
b11 !
19
08
07
1)
06
03
02
01
00
0"
0%
0&
0'
0(
#705000
b1011 !
17
0)
16
13
12
11
10
1"
1%
1&
1'
1(
#710000
b1111 !
b111 !
18
07
1)
15
02
01
00
0&
0'
0(
0#
#715000
b1111 !
17
0)
05
12
11
10
1&
1'
1(
1#
#720000
b1110 !
b1100 !
b1000 !
b0 !
0:
09
08
07
1)
15
04
03
02
01
00
0$
0%
0&
0'
0(
0#
#725000
b1000 !
17
0)
06
0"
#730000
b1100 !
b100 !
18
07
1)
14
13
10
1$
1%
1(
#735000
b1100 !
17
0)
16
05
12
11
1"
1&
1'
1#
#740000
b1110 !
b1010 !
b10 !
19
08
07
1)
06
04
03
01
00
0"
0$
0%
0'
0(
#745000
b1010 !
17
0)
16
14
13
11
10
1"
1$
1%
1'
1(
#750000
b1110 !
b110 !
18
07
1)
06
15
04
03
02
00
0"
0$
0%
0&
0(
0#
#755000
b1110 !
17
0)
16
05
14
13
12
10
1"
1$
1%
1&
1(
1#
#760000
b1111 !
b1101 !
b1001 !
b1 !
1:
09
08
07
1)
02
01
0&
0'
#765000
b1001 !
17
0)
06
15
03
00
0"
0%
0(
0#
#770000
b1101 !
b101 !
18
07
1)
11
1'
#775000
b1101 !
17
0)
16
05
13
12
10
1"
1%
1&
1(
1#
#780000
b1111 !
b1011 !
b11 !
19
08
07
1)
06
03
02
01
00
0"
0%
0&
0'
0(
#785000
b1011 !
17
0)
16
13
12
11
10
1"
1%
1&
1'
1(
#790000
b1111 !
b111 !
18
07
1)
15
02
01
00
0&
0'
0(
0#
#795000
b1111 !
17
0)
05
12
11
10
1&
1'
1(
1#
#800000
b1110 !
b1100 !
b1000 !
b0 !
0:
09
08
07
1)
15
04
03
02
01
00
0$
0%
0&
0'
0(
0#
#805000
b1000 !
17
0)
06
0"
#810000
b1100 !
b100 !
18
07
1)
14
13
10
1$
1%
1(
#815000
b1100 !
17
0)
16
05
12
11
1"
1&
1'
1#
#820000
b1110 !
b1010 !
b10 !
19
08
07
1)
06
04
03
01
00
0"
0$
0%
0'
0(
#825000
b1010 !
17
0)
16
14
13
11
10
1"
1$
1%
1'
1(
#830000
b1110 !
b110 !
18
07
1)
06
15
04
03
02
00
0"
0$
0%
0&
0(
0#
#835000
b1110 !
17
0)
16
05
14
13
12
10
1"
1$
1%
1&
1(
1#
#840000
b1111 !
b1101 !
b1001 !
b1 !
1:
09
08
07
1)
02
01
0&
0'
#845000
b1001 !
17
0)
06
15
03
00
0"
0%
0(
0#
#850000
b1101 !
b101 !
18
07
1)
11
1'
#855000
b1101 !
17
0)
16
05
13
12
10
1"
1%
1&
1(
1#
#860000
b1111 !
b1011 !
b11 !
19
08
07
1)
06
03
02
01
00
0"
0%
0&
0'
0(
#865000
b1011 !
17
0)
16
13
12
11
10
1"
1%
1&
1'
1(
#870000
b1111 !
b111 !
18
07
1)
15
02
01
00
0&
0'
0(
0#
#875000
b1111 !
17
0)
05
12
11
10
1&
1'
1(
1#
#880000
b1110 !
b1100 !
b1000 !
b0 !
0:
09
08
07
1)
15
04
03
02
01
00
0$
0%
0&
0'
0(
0#
#885000
b1000 !
17
0)
06
0"
#890000
b1100 !
b100 !
18
07
1)
14
13
10
1$
1%
1(
#895000
b1100 !
17
0)
16
05
12
11
1"
1&
1'
1#
#900000
b1110 !
b1010 !
b10 !
19
08
07
1)
06
04
03
01
00
0"
0$
0%
0'
0(
#905000
b1010 !
17
0)
16
14
13
11
10
1"
1$
1%
1'
1(
#910000
b1110 !
b110 !
18
07
1)
06
15
04
03
02
00
0"
0$
0%
0&
0(
0#
#915000
b1110 !
17
0)
16
05
14
13
12
10
1"
1$
1%
1&
1(
1#
#920000
b1111 !
b1101 !
b1001 !
b1 !
1:
09
08
07
1)
02
01
0&
0'
#925000
b1001 !
17
0)
06
15
03
00
0"
0%
0(
0#
#930000
b1101 !
b101 !
18
07
1)
11
1'
#935000
b1101 !
17
0)
16
05
13
12
10
1"
1%
1&
1(
1#
#940000
b1111 !
b1011 !
b11 !
19
08
07
1)
06
03
02
01
00
0"
0%
0&
0'
0(
#945000
b1011 !
17
0)
16
13
12
11
10
1"
1%
1&
1'
1(
#950000
b1111 !
b111 !
18
07
1)
15
02
01
00
0&
0'
0(
0#
#955000
b1111 !
17
0)
05
12
11
10
1&
1'
1(
1#
#960000
b1110 !
b1100 !
b1000 !
b0 !
0:
09
08
07
1)
15
04
03
02
01
00
0$
0%
0&
0'
0(
0#
#965000
b1000 !
17
0)
06
0"
#970000
b1100 !
b100 !
18
07
1)
14
13
10
1$
1%
1(
#975000
b1100 !
17
0)
16
05
12
11
1"
1&
1'
1#
#980000
b1110 !
b1010 !
b10 !
19
08
07
1)
06
04
03
01
00
0"
0$
0%
0'
0(
#985000
b1010 !
17
0)
16
14
13
11
10
1"
1$
1%
1'
1(
#990000
b1110 !
b110 !
18
07
1)
06
15
04
03
02
00
0"
0$
0%
0&
0(
0#
#995000
b1110 !
17
0)
16
05
14
13
12
10
1"
1$
1%
1&
1(
1#
