4th/counter_60/simulation/qsim/counter_60.msim.vcd
$comment
	File created using the following command:
		vcd file counter_60.msim.vcd -direction
$end
$date
	Tue Apr 10 21:36:07 2018
$end
$version
	ModelSim Version 10.1d
$end
$timescale
	1ps
$end
$scope module counter_60_vlg_vec_tst $end
$var reg 1 ! clk $end
$var reg 1 " nRst $end
$var wire 1 # carry $end
$var wire 1 $ digit_one [3] $end
$var wire 1 % digit_one [2] $end
$var wire 1 & digit_one [1] $end
$var wire 1 ' digit_one [0] $end
$var wire 1 ( digit_ten [3] $end
$var wire 1 ) digit_ten [2] $end
$var wire 1 * digit_ten [1] $end
$var wire 1 + digit_ten [0] $end
$var wire 1 , sampler $end
$scope module i1 $end
$var wire 1 - gnd $end
$var wire 1 . vcc $end
$var wire 1 / unknown $end
$var tri1 1 0 devclrn $end
$var tri1 1 1 devpor $end
$var tri1 1 2 devoe $end
$var wire 1 3 count_ten[3]~2_combout $end
$var wire 1 4 clk~combout $end
$var wire 1 5 clk~clkctrl_outclk $end
$var wire 1 6 count_one[0]~3_combout $end
$var wire 1 7 nRst~combout $end
$var wire 1 8 nRst~clkctrl_outclk $end
$var wire 1 9 count_one[2]~1_combout $end
$var wire 1 : count_one~2_combout $end
$var wire 1 ; count_one~0_combout $end
$var wire 1 < count_ten[0]~4_combout $end
$var wire 1 = Equal0~0_combout $end
$var wire 1 > count_ten[3]~3_combout $end
$var wire 1 ? count_ten~0_combout $end
$var wire 1 @ count_ten~1_combout $end
$var wire 1 A Equal1~0_combout $end
$var wire 1 B count_carry~0_combout $end
$var wire 1 C count_carry~regout $end
$var wire 1 D count_ten [3] $end
$var wire 1 E count_ten [2] $end
$var wire 1 F count_ten [1] $end
$var wire 1 G count_ten [0] $end
$var wire 1 H count_one [3] $end
$var wire 1 I count_one [2] $end
$var wire 1 J count_one [1] $end
$var wire 1 K count_one [0] $end
$upscope $end
$upscope $end
$enddefinitions $end
#0
$dumpvars
0!
1"
0#
0'
0&
0%
0$
0+
0*
0)
0(
x,
0-
1.
x/
10
11
12
03
04
05
16
17
18
09
0:
0;
1<
0=
0>
0?
0@
0A
0B
0C
0G
0F
0E
0D
0K
0J
0I
0H
$end
#5000
1!
14
15
0,
1K
1;
06
1'
#10000
0!
04
05
1,
#15000
1!
14
15
0,
1J
0K
16
1&
0'
#20000
0!
04
05
1,
#25000
1!
14
15
0,
1K
0;
19
06
1'
#30000
0!
04
05
1,
#35000
1!
14
15
0,
0J
1I
0K
16
0&
1%
0'
#40000
0!
04
05
1,
#45000
1!
14
15
0,
1K
1;
06
1'
#50000
0!
04
05
1,
#55000
1!
14
15
0,
1J
0K
16
1&
0'
#60000
0!
04
05
1,
#65000
1!
14
15
0,
1K
0;
1:
09
06
1'
#70000
0!
04
05
1,
#75000
1!
14
15
0,
0J
1H
0I
0K
16
0&
1$
0%
0'
#80000
0!
04
05
1,
#85000
1!
14
15
0,
1K
1=
0:
06
1'
#90000
0!
04
05
1,
#95000
1!
14
15
0,
1G
0H
0K
1?
0<
0=
16
1+
0$
0'
#100000
0!
04
05
1,
#105000
1!
14
15
0,
1K
1;
06
1'
#110000
0!
04
05
1,
#115000
1!
14
15
0,
1J
0K
16
1&
0'
#120000
0!
04
05
1,
#125000
1!
14
15
0,
1K
0;
19
06
1'
#130000
0!
04
05
1,
#135000
1!
14
15
0,
0J
1I
0K
16
0&
1%
0'
#140000
0!
04
05
1,
#145000
1!
14
15
0,
1K
1;
06
1'
#150000
0!
04
05
1,
#155000
1!
14
15
0,
1J
0K
16
1&
0'
#160000
0!
04
05
1,
#165000
1!
14
15
0,
1K
0;
1:
09
06
1'
#170000
0!
04
05
1,
#175000
1!
14
15
0,
0J
1H
0I
0K
16
0&
1$
0%
0'
#180000
0!
04
05
1,
#185000
1!
14
15
0,
1K
1=
0:
06
1'
#190000
0!
04
05
1,
#195000
1!
14
15
0,
1F
0G
0H
0K
1<
0=
16
1*
0+
0$
0'
#200000
0!
04
05
1,
#205000
1!
14
15
0,
1K
1;
06
1'
#210000
0!
04
05
1,
#215000
1!
14
15
0,
1J
0K
16
1&
0'
#220000
0!
04
05
1,
#225000
1!
14
15
0,
1K
0;
19
06
1'
#230000
0!
04
05
1,
#235000
1!
14
15
0,
0J
1I
0K
16
0&
1%
0'
#240000
0!
04
05
1,
#245000
1!
14
15
0,
1K
1;
06
1'
#250000
0!
04
05
1,
#255000
1!
14
15
0,
1J
0K
16
1&
0'
#260000
0!
04
05
1,
#265000
1!
14
15
0,
1K
0;
1:
09
06
1'
#270000
0!
04
05
1,
#275000
1!
14
15
0,
0J
1H
0I
0K
16
0&
1$
0%
0'
#280000
0!
04
05
1,
#285000
1!
14
15
0,
1K
1=
0:
06
1'
#290000
0!
04
05
1,
#295000
1!
14
15
0,
1G
0H
0K
1@
0?
0<
0=
16
1+
0$
0'
#300000
0!
04
05
1,
#305000
1!
14
15
0,
1K
1;
06
1'
#310000
0!
04
05
1,
#315000
1!
14
15
0,
1J
0K
16
1&
0'
#320000
0!
04
05
1,
#325000
1!
14
15
0,
1K
0;
19
06
1'
#330000
0!
04
05
1,
#335000
1!
14
15
0,
0J
1I
0K
16
0&
1%
0'
#340000
0!
04
05
1,
#345000
1!
14
15
0,
1K
1;
06
1'
#350000
0!
04
05
1,
#355000
1!
14
15
0,
1J
0K
16
1&
0'
#360000
0!
04
05
1,
#365000
1!
14
15
0,
1K
0;
1:
09
06
1'
#370000
0!
04
05
1,
#375000
1!
14
15
0,
0J
1H
0I
0K
16
0&
1$
0%
0'
#380000
0!
04
05
1,
#385000
1!
14
15
0,
1K
1=
0:
06
1'
#390000
0!
04
05
1,
#395000
1!
14
15
0,
1E
0F
0G
0H
0K
1<
0=
16
1)
0*
0+
0$
0'
#400000
0!
04
05
1,
#405000
1!
14
15
0,
1K
1;
06
1'
#410000
0!
04
05
1,
#415000
1!
14
15
0,
1J
0K
16
1&
0'
#420000
0!
04
05
1,
#425000
1!
14
15
0,
1K
0;
19
06
1'
#430000
0!
04
05
1,
#435000
1!
14
15
0,
0J
1I
0K
16
0&
1%
0'
#440000
0!
04
05
1,
#445000
1!
14
15
0,
1K
1;
06
1'
#450000
0!
04
05
1,
#455000
1!
14
15
0,
1J
0K
16
1&
0'
#460000
0!
04
05
1,
#465000
1!
14
15
0,
1K
0;
1:
09
06
1'
#470000
0!
04
05
1,
#475000
1!
14
15
0,
0J
1H
0I
0K
16
0&
1$
0%
0'
#480000
0!
04
05
1,
#485000
1!
14
15
0,
1K
1=
0:
06
1'
#490000
0!
04
05
1,
#495000
1!
14
15
0,
1G
0H
0K
1A
0@
0<
0=
16
1+
0$
0'
#500000
0!
04
05
1,
#505000
1!
14
15
0,
1K
1;
06
1'
#510000
0!
04
05
1,
#515000
1!
14
15
0,
1J
0K
16
1&
0'
#520000
0!
04
05
1,
#525000
1!
14
15
0,
1K
0;
19
06
1'
#530000
0!
04
05
1,
#535000
1!
14
15
0,
0J
1I
0K
16
0&
1%
0'
#540000
0!
04
05
1,
#545000
1!
14
15
0,
1K
1;
06
1'
#550000
0!
04
05
1,
#555000
1!
14
15
0,
1J
0K
16
1&
0'
#560000
0!
04
05
1,
#565000
1!
14
15
0,
1K
0;
1:
09
06
1'
#570000
0!
04
05
1,
#575000
1!
14
15
0,
0J
1H
0I
0K
16
0&
1$
0%
0'
#580000
0!
04
05
1,
#585000
1!
14
15
0,
1K
1=
0:
06
1'
1B
#590000
0!
04
05
1,
#595000
1!
14
15
0,
1C
0E
0G
0H
0K
0A
1<
0=
16
1#
0)
0+
0$
0'
0B
#600000
0!
04
05
1,
#605000
1!
14
15
0,
0C
1K
1;
06
0#
1'
#610000
0!
04
05
1,
#615000
1!
14
15
0,
1J
0K
16
1&
0'
#620000
0!
04
05
1,
#625000
1!
14
15
0,
1K
0;
19
06
1'
#630000
0!
04
05
1,
#635000
1!
14
15
0,
0J
1I
0K
16
0&
1%
0'
#640000
0!
04
05
1,
#645000
1!
14
15
0,
1K
1;
06
1'
#650000
0!
04
05
1,
#655000
1!
14
15
0,
1J
0K
16
1&
0'
#660000
0!
04
05
1,
#665000
1!
14
15
0,
1K
0;
1:
09
06
1'
#670000
0!
04
05
1,
#675000
1!
14
15
0,
0J
1H
0I
0K
16
0&
1$
0%
0'
#680000
0!
04
05
1,
#685000
1!
14
15
0,
1K
1=
0:
06
1'
#690000
0!
04
05
1,
#695000
1!
14
15
0,
1G
0H
0K
1?
0<
0=
16
1+
0$
0'
#700000
0!
04
05
1,
#705000
1!
14
15
0,
1K
1;
06
1'
#710000
0!
04
05
1,
#715000
1!
14
15
0,
1J
0K
16
1&
0'
#720000
0!
04
05
1,
#725000
1!
14
15
0,
1K
0;
19
06
1'
#730000
0!
04
05
1,
#735000
1!
14
15
0,
0J
1I
0K
16
0&
1%
0'
#740000
0!
04
05
1,
#745000
1!
14
15
0,
1K
1;
06
1'
#750000
0!
04
05
1,
#755000
1!
14
15
0,
1J
0K
16
1&
0'
#760000
0!
04
05
1,
#765000
1!
14
15
0,
1K
0;
1:
09
06
1'
#770000
0!
04
05
1,
#775000
1!
14
15
0,
0J
1H
0I
0K
16
0&
1$
0%
0'
#780000
0!
04
05
1,
#785000
1!
14
15
0,
1K
1=
0:
06
1'
#790000
0!
04
05
1,
#795000
1!
14
15
0,
1F
0G
0H
0K
1<
0=
16
1*
0+
0$
0'
#800000
0!
04
05
1,
#805000
1!
14
15
0,
1K
1;
06
1'
#810000
0!
04
05
1,
#815000
1!
14
15
0,
1J
0K
16
1&
0'
#820000
0!
04
05
1,
#825000
1!
14
15
0,
1K
0;
19
06
1'
#830000
0!
04
05
1,
#835000
1!
14
15
0,
0J
1I
0K
16
0&
1%
0'
#840000
0!
04
05
1,
#845000
1!
14
15
0,
1K
1;
06
1'
#850000
0!
04
05
1,
#855000
1!
14
15
0,
1J
0K
16
1&
0'
#860000
0!
04
05
1,
#865000
1!
14
15
0,
1K
0;
1:
09
06
1'
#870000
0!
04
05
1,
#875000
1!
14
15
0,
0J
1H
0I
0K
16
0&
1$
0%
0'
#880000
0!
04
05
1,
#885000
1!
14
15
0,
1K
1=
0:
06
1'
#890000
0!
04
05
1,
#895000
1!
14
15
0,
1G
0H
0K
1@
0?
0<
0=
16
1+
0$
0'
#900000
0!
04
05
1,
#905000
1!
14
15
0,
1K
1;
06
1'
#910000
0!
04
05
1,
#915000
1!
14
15
0,
1J
0K
16
1&
0'
#920000
0!
04
05
1,
#925000
1!
14
15
0,
1K
0;
19
06
1'
#930000
0!
04
05
1,
#935000
1!
14
15
0,
0J
1I
0K
16
0&
1%
0'
#940000
0!
04
05
1,
#945000
1!
14
15
0,
1K
1;
06
1'
#950000
0!
04
05
1,
#955000
1!
14
15
0,
1J
0K
16
1&
0'
#960000
0!
04
05
1,
#965000
1!
14
15
0,
1K
0;
1:
09
06
1'
#970000
0!
04
05
1,
#975000
1!
14
15
0,
0J
1H
0I
0K
16
0&
1$
0%
0'
#980000
0!
04
05
1,
#985000
1!
14
15
0,
1K
1=
0:
06
1'
#990000
0!
04
05
1,
#995000
1!
14
15
0,
1E
0F
0G
0H
0K
1<
0=
16
1)
0*
0+
0$
0'
