2nd/MUX_2x1/schemetic/simulation/qsim/MUX_2x1.msim.vcd
$comment
	File created using the following command:
		vcd file MUX_2x1.msim.vcd -direction
$end
$date
	Mon Mar 19 10:35:49 2018
$end
$version
	ModelSim Version 10.1d
$end
$timescale
	1ps
$end
$scope module MUX_2x1_vlg_vec_tst $end
$var reg 1 ! A $end
$var reg 1 " B $end
$var reg 1 # SEL $end
$var wire 1 $ Y $end
$var wire 1 % sampler $end
$scope module i1 $end
$var wire 1 & gnd $end
$var wire 1 ' vcc $end
$var wire 1 ( unknown $end
$var tri1 1 ) devclrn $end
$var tri1 1 * devpor $end
$var tri1 1 + devoe $end
$var wire 1 , B~combout $end
$var wire 1 - A~combout $end
$var wire 1 . SEL~combout $end
$var wire 1 / inst2~0_combout $end
$upscope $end
$upscope $end
$enddefinitions $end
#0
$dumpvars
0!
0"
0#
x$
x%
0&
1'
x(
1)
1*
1+
0,
0-
0.
x/
$end
#629
0/
#5000
1!
0%
#5333
0$
#5999
1-
#6628
1/
#10000
0!
1%
#10999
0-
#11332
1$
#11628
0/
#15000
1!
0%
#15999
1-
#16332
0$
#16628
1/
#20000
0!
1%
#20999
0-
#21332
1$
#21628
0/
#25000
1!
0%
#25999
1-
#26332
0$
#26628
1/
#30000
0!
1%
#30999
0-
#31332
1$
#31628
0/
#35000
1"
1!
0%
#35999
1-
1,
#36332
0$
#36628
1/
#40000
0!
1%
#40999
0-
#41332
1$
#41628
0/
#45000
1!
0%
#45999
1-
#46332
0$
#46628
1/
#50000
0!
1%
#50999
0-
#51332
1$
#51628
0/
#55000
1!
0%
#55999
1-
#56332
0$
#56628
1/
#60000
0!
1%
#60999
0-
#61332
1$
#61628
0/
#65000
1!
0%
#65999
1-
#66332
0$
#66628
1/
#70000
0"
0!
1%
#70999
0-
0,
#71332
1$
#71628
0/
#75000
1!
0%
#75999
1-
#76332
0$
#76628
1/
#80000
0!
1%
#80999
0-
#81332
1$
#81628
0/
#85000
1!
0%
#85999
1-
#86332
0$
#86628
1/
#90000
0!
1%
#90999
0-
#91332
1$
#91628
0/
#95000
1!
0%
#95999
1-
#96332
0$
#96628
1/
#100000
1#
0!
1%
#100999
0-
1.
#101332
1$
#101498
0/
#105000
1"
1!
0%
#105999
1-
1,
#106202
0$
#106803
1/
#110000
0!
1%
#110999
0-
#111507
1$
#115000
1!
0%
#115999
1-
#120000
0!
1%
#120999
0-
#125000
1!
0%
#125999
1-
#130000
0!
1%
#130999
0-
#135000
1!
0%
#135999
1-
#140000
0"
0!
1%
#140999
0-
0,
#141803
0/
#145000
1!
0%
#145999
1-
#146507
0$
#150000
0!
1%
#150999
0-
#155000
1!
0%
#155999
1-
#160000
0!
1%
#160999
0-
#165000
1!
0%
#165999
1-
#170000
0!
1%
#170999
0-
#175000
1"
1!
0%
#175999
1-
1,
#176803
1/
#180000
0!
1%
#180999
0-
#181507
1$
#185000
1!
0%
#185999
1-
#190000
0!
1%
#190999
0-
#195000
1!
0%
#195999
1-
#200000
0#
0!
1%
#200999
0-
0.
#201628
0/
#205000
1!
0%
#205999
1-
#206332
0$
#206628
1/
#210000
0"
0!
1%
#210999
0-
0,
#211332
1$
#211628
0/
#215000
1!
0%
#215999
1-
#216332
0$
#216628
1/
#220000
0!
1%
#220999
0-
#221332
1$
#221628
0/
#225000
1!
0%
#225999
1-
#226332
0$
#226628
1/
#230000
0!
1%
#230999
0-
#231332
1$
#231628
0/
#235000
1!
0%
#235999
1-
#236332
0$
#236628
1/
#240000
0!
1%
#240999
0-
#241332
1$
#241628
0/
#245000
1"
1!
0%
#245999
1-
1,
#246332
0$
#246628
1/
#250000
0!
1%
#250999
0-
#251332
1$
#251628
0/
#255000
1!
0%
#255999
1-
#256332
0$
#256628
1/
#260000
0!
1%
#260999
0-
#261332
1$
#261628
0/
#265000
1!
0%
#265999
1-
#266332
0$
#266628
1/
#270000
0!
1%
#270999
0-
#271332
1$
#271628
0/
#275000
1!
0%
#275999
1-
#276332
0$
#276628
1/
#280000
0"
0!
1%
#280999
0-
0,
#281332
1$
#281628
0/
#285000
1!
0%
#285999
1-
#286332
0$
#286628
1/
#290000
0!
1%
#290999
0-
#291332
1$
#291628
0/
#295000
1!
0%
#295999
1-
#296332
0$
#296628
1/
#300000
1#
0!
1%
#300999
0-
1.
#301332
1$
#301498
0/
#305000
1!
0%
#305999
1-
#306202
0$
#310000
0!
1%
#310999
0-
#315000
1"
1!
0%
#315999
1-
1,
#316803
1/
#320000
0!
1%
#320999
0-
#321507
1$
#325000
1!
0%
#325999
1-
#330000
0!
1%
#330999
0-
#335000
1!
0%
#335999
1-
#340000
0!
1%
#340999
0-
#345000
1!
0%
#345999
1-
#350000
0"
0!
1%
#350999
0-
0,
#351803
0/
#355000
1!
0%
#355999
1-
#356507
0$
#360000
0!
1%
#360999
0-
#365000
1!
0%
#365999
1-
#370000
0!
1%
#370999
0-
#375000
1!
0%
#375999
1-
#380000
0!
1%
#380999
0-
#385000
1"
1!
0%
#385999
1-
1,
#386803
1/
#390000
0!
1%
#390999
0-
#391507
1$
#395000
1!
0%
#395999
1-
#400000
0#
0!
1%
#400999
0-
0.
#401628
0/
#405000
1!
0%
#405999
1-
#406332
0$
#406628
1/
#410000
0!
1%
#410999
0-
#411332
1$
#411628
0/
#415000
1!
0%
#415999
1-
#416332
0$
#416628
1/
#420000
0"
0!
1%
#420999
0-
0,
#421332
1$
#421628
0/
#425000
1!
0%
#425999
1-
#426332
0$
#426628
1/
#430000
0!
1%
#430999
0-
#431332
1$
#431628
0/
#435000
1!
0%
#435999
1-
#436332
0$
#436628
1/
#440000
0!
1%
#440999
0-
#441332
1$
#441628
0/
#445000
1!
0%
#445999
1-
#446332
0$
#446628
1/
#450000
0!
1%
#450999
0-
#451332
1$
#451628
0/
#455000
1"
1!
0%
#455999
1-
1,
#456332
0$
#456628
1/
#460000
0!
1%
#460999
0-
#461332
1$
#461628
0/
#465000
1!
0%
#465999
1-
#466332
0$
#466628
1/
#470000
0!
1%
#470999
0-
#471332
1$
#471628
0/
#475000
1!
0%
#475999
1-
#476332
0$
#476628
1/
#480000
0!
1%
#480999
0-
#481332
1$
#481628
0/
#485000
1!
0%
#485999
1-
#486332
0$
#486628
1/
#490000
0"
0!
1%
#490999
0-
0,
#491332
1$
#491628
0/
#495000
1!
0%
#495999
1-
#496332
0$
#496628
1/
#500000
1#
0!
1%
#500999
0-
1.
#501332
1$
#501498
0/
#505000
1!
0%
#505999
1-
#506202
0$
#510000
0!
1%
#510999
0-
#515000
1!
0%
#515999
1-
#520000
0!
1%
#520999
0-
#525000
1"
1!
0%
#525999
1-
1,
#526803
1/
#530000
0!
1%
#530999
0-
#531507
1$
#535000
1!
0%
#535999
1-
#540000
0!
1%
#540999
0-
#545000
1!
0%
#545999
1-
#550000
0!
1%
#550999
0-
#555000
1!
0%
#555999
1-
#560000
0"
0!
1%
#560999
0-
0,
#561803
0/
#565000
1!
0%
#565999
1-
#566507
0$
#570000
0!
1%
#570999
0-
#575000
1!
0%
#575999
1-
#580000
0!
1%
#580999
0-
#585000
1!
0%
#585999
1-
#590000
0!
1%
#590999
0-
#595000
1"
1!
0%
#595999
1-
1,
#596803
1/
#600000
0#
0!
1%
#600999
0-
0.
#601507
1$
#601628
0/
#605000
1!
0%
#605999
1-
#606332
0$
#606628
1/
#610000
0!
1%
#610999
0-
#611332
1$
#611628
0/
#615000
1!
0%
#615999
1-
#616332
0$
#616628
1/
#620000
0!
1%
#620999
0-
#621332
1$
#621628
0/
#625000
1!
0%
#625999
1-
#626332
0$
#626628
1/
#630000
0"
0!
1%
#630999
0-
0,
#631332
1$
#631628
0/
#635000
1!
0%
#635999
1-
#636332
0$
#636628
1/
#640000
0!
1%
#640999
0-
#641332
1$
#641628
0/
#645000
1!
0%
#645999
1-
#646332
0$
#646628
1/
#650000
0!
1%
#650999
0-
#651332
1$
#651628
0/
#655000
1!
0%
#655999
1-
#656332
0$
#656628
1/
#660000
0!
1%
#660999
0-
#661332
1$
#661628
0/
#665000
1"
1!
0%
#665999
1-
1,
#666332
0$
#666628
1/
#670000
0!
1%
#670999
0-
#671332
1$
#671628
0/
#675000
1!
0%
#675999
1-
#676332
0$
#676628
1/
#680000
0!
1%
#680999
0-
#681332
1$
#681628
0/
#685000
1!
0%
#685999
1-
#686332
0$
#686628
1/
#690000
0!
1%
#690999
0-
#691332
1$
#691628
0/
#695000
1!
0%
#695999
1-
#696332
0$
#696628
1/
#700000
1#
0"
0!
1%
#700999
0-
0,
1.
#701332
1$
#701803
0/
#705000
1!
0%
#705999
1-
#706507
0$
#710000
0!
1%
#710999
0-
#715000
1!
0%
#715999
1-
#720000
0!
1%
#720999
0-
#725000
1!
0%
#725999
1-
#730000
0!
1%
#730999
0-
#735000
1"
1!
0%
#735999
1-
1,
#736803
1/
#740000
0!
1%
#740999
0-
#741507
1$
#745000
1!
0%
#745999
1-
#750000
0!
1%
#750999
0-
#755000
1!
0%
#755999
1-
#760000
0!
1%
#760999
0-
#765000
1!
0%
#765999
1-
#770000
0"
0!
1%
#770999
0-
0,
#771803
0/
#775000
1!
0%
#775999
1-
#776507
0$
#780000
0!
1%
#780999
0-
#785000
1!
0%
#785999
1-
#790000
0!
1%
#790999
0-
#795000
1!
0%
#795999
1-
#800000
0#
0!
1%
#800999
0-
0.
#805000
1"
1!
0%
#805999
1-
1,
#806628
1/
#810000
0!
1%
#810999
0-
#811332
1$
#811628
0/
#815000
1!
0%
#815999
1-
#816332
0$
#816628
1/
#820000
0!
1%
#820999
0-
#821332
1$
#821628
0/
#825000
1!
0%
#825999
1-
#826332
0$
#826628
1/
#830000
0!
1%
#830999
0-
#831332
1$
#831628
0/
#835000
1!
0%
#835999
1-
#836332
0$
#836628
1/
#840000
0"
0!
1%
#840999
0-
0,
#841332
1$
#841628
0/
#845000
1!
0%
#845999
1-
#846332
0$
#846628
1/
#850000
0!
1%
#850999
0-
#851332
1$
#851628
0/
#855000
1!
0%
#855999
1-
#856332
0$
#856628
1/
#860000
0!
1%
#860999
0-
#861332
1$
#861628
0/
#866332
0$
