2nd/MUX_2x1/VHDL/simulation/qsim/MUX_2x1.msim.vcd
$comment
	File created using the following command:
		vcd file MUX_2x1.msim.vcd -direction
$end
$date
	Mon Mar 19 10:40:17 2018
$end
$version
	ModelSim Version 10.1d
$end
$timescale
	1ps
$end
$scope module MUX_2x1_vlg_vec_tst $end
$var reg 1 ! A $end
$var reg 1 " B $end
$var reg 1 # SEL $end
$var wire 1 $ Y $end
$var wire 1 % sampler $end
$scope module i1 $end
$var wire 1 & gnd $end
$var wire 1 ' vcc $end
$var wire 1 ( unknown $end
$var tri1 1 ) devclrn $end
$var tri1 1 * devpor $end
$var tri1 1 + devoe $end
$var wire 1 , SEL~combout $end
$var wire 1 - B~combout $end
$var wire 1 . A~combout $end
$var wire 1 / Y~0_combout $end
$upscope $end
$upscope $end
$enddefinitions $end
#0
$dumpvars
0!
0"
0#
0$
x%
0&
1'
x(
1)
1*
1+
0,
0-
0.
0/
$end
#5000
1!
1.
0%
1/
1$
#10000
0!
0.
1%
0/
0$
#15000
1!
1.
0%
1/
1$
#20000
0!
0.
1%
0/
0$
#25000
1!
1.
0%
1/
1$
#30000
0!
0.
1%
0/
0$
#35000
1"
1!
1-
1.
0%
1/
1$
#40000
0!
0.
1%
0/
0$
#45000
1!
1.
0%
1/
1$
#50000
0!
0.
1%
0/
0$
#55000
1!
1.
0%
1/
1$
#60000
0!
0.
1%
0/
0$
#65000
1!
1.
0%
1/
1$
#70000
0"
0!
0-
0.
1%
0/
0$
#75000
1!
1.
0%
1/
1$
#80000
0!
0.
1%
0/
0$
#85000
1!
1.
0%
1/
1$
#90000
0!
0.
1%
0/
0$
#95000
1!
1.
0%
1/
1$
#100000
1#
0!
1,
0.
1%
0/
0$
#105000
1"
1!
1-
1.
0%
1/
1$
#110000
0!
0.
1%
#115000
1!
1.
0%
#120000
0!
0.
1%
#125000
1!
1.
0%
#130000
0!
0.
1%
#135000
1!
1.
0%
#140000
0"
0!
0-
0.
1%
0/
0$
#145000
1!
1.
0%
#150000
0!
0.
1%
#155000
1!
1.
0%
#160000
0!
0.
1%
#165000
1!
1.
0%
#170000
0!
0.
1%
#175000
1"
1!
1-
1.
0%
1/
1$
#180000
0!
0.
1%
#185000
1!
1.
0%
#190000
0!
0.
1%
#195000
1!
1.
0%
#200000
0#
0!
0,
0.
1%
0/
0$
#205000
1!
1.
0%
1/
1$
#210000
0"
0!
0-
0.
1%
0/
0$
#215000
1!
1.
0%
1/
1$
#220000
0!
0.
1%
0/
0$
#225000
1!
1.
0%
1/
1$
#230000
0!
0.
1%
0/
0$
#235000
1!
1.
0%
1/
1$
#240000
0!
0.
1%
0/
0$
#245000
1"
1!
1-
1.
0%
1/
1$
#250000
0!
0.
1%
0/
0$
#255000
1!
1.
0%
1/
1$
#260000
0!
0.
1%
0/
0$
#265000
1!
1.
0%
1/
1$
#270000
0!
0.
1%
0/
0$
#275000
1!
1.
0%
1/
1$
#280000
0"
0!
0-
0.
1%
0/
0$
#285000
1!
1.
0%
1/
1$
#290000
0!
0.
1%
0/
0$
#295000
1!
1.
0%
1/
1$
#300000
1#
0!
1,
0.
1%
0/
0$
#305000
1!
1.
0%
#310000
0!
0.
1%
#315000
1"
1!
1-
1.
0%
1/
1$
#320000
0!
0.
1%
#325000
1!
1.
0%
#330000
0!
0.
1%
#335000
1!
1.
0%
#340000
0!
0.
1%
#345000
1!
1.
0%
#350000
0"
0!
0-
0.
1%
0/
0$
#355000
1!
1.
0%
#360000
0!
0.
1%
#365000
1!
1.
0%
#370000
0!
0.
1%
#375000
1!
1.
0%
#380000
0!
0.
1%
#385000
1"
1!
1-
1.
0%
1/
1$
#390000
0!
0.
1%
#395000
1!
1.
0%
#400000
0#
0!
0,
0.
1%
0/
0$
#405000
1!
1.
0%
1/
1$
#410000
0!
0.
1%
0/
0$
#415000
1!
1.
0%
1/
1$
#420000
0"
0!
0-
0.
1%
0/
0$
#425000
1!
1.
0%
1/
1$
#430000
0!
0.
1%
0/
0$
#435000
1!
1.
0%
1/
1$
#440000
0!
0.
1%
0/
0$
#445000
1!
1.
0%
1/
1$
#450000
0!
0.
1%
0/
0$
#455000
1"
1!
1-
1.
0%
1/
1$
#460000
0!
0.
1%
0/
0$
#465000
1!
1.
0%
1/
1$
#470000
0!
0.
1%
0/
0$
#475000
1!
1.
0%
1/
1$
#480000
0!
0.
1%
0/
0$
#485000
1!
1.
0%
1/
1$
#490000
0"
0!
0-
0.
1%
0/
0$
#495000
1!
1.
0%
1/
1$
#500000
1#
0!
1,
0.
1%
0/
0$
#505000
1!
1.
0%
#510000
0!
0.
1%
#515000
1!
1.
0%
#520000
0!
0.
1%
#525000
1"
1!
1-
1.
0%
1/
1$
#530000
0!
0.
1%
#535000
1!
1.
0%
#540000
0!
0.
1%
#545000
1!
1.
0%
#550000
0!
0.
1%
#555000
1!
1.
0%
#560000
0"
0!
0-
0.
1%
0/
0$
#565000
1!
1.
0%
#570000
0!
0.
1%
#575000
1!
1.
0%
#580000
0!
0.
1%
#585000
1!
1.
0%
#590000
0!
0.
1%
#595000
1"
1!
1-
1.
0%
1/
1$
#600000
0#
0!
0,
0.
1%
0/
0$
#605000
1!
1.
0%
1/
1$
#610000
0!
0.
1%
0/
0$
#615000
1!
1.
0%
1/
1$
#620000
0!
0.
1%
0/
0$
#625000
1!
1.
0%
1/
1$
#630000
0"
0!
0-
0.
1%
0/
0$
#635000
1!
1.
0%
1/
1$
#640000
0!
0.
1%
0/
0$
#645000
1!
1.
0%
1/
1$
#650000
0!
0.
1%
0/
0$
#655000
1!
1.
0%
1/
1$
#660000
0!
0.
1%
0/
0$
#665000
1"
1!
1-
1.
0%
1/
1$
#670000
0!
0.
1%
0/
0$
#675000
1!
1.
0%
1/
1$
#680000
0!
0.
1%
0/
0$
#685000
1!
1.
0%
1/
1$
#690000
0!
0.
1%
0/
0$
#695000
1!
1.
0%
1/
1$
#700000
1#
0"
0!
1,
0-
0.
1%
0/
0$
#705000
1!
1.
0%
#710000
0!
0.
1%
#715000
1!
1.
0%
#720000
0!
0.
1%
#725000
1!
1.
0%
#730000
0!
0.
1%
#735000
1"
1!
1-
1.
0%
1/
1$
#740000
0!
0.
1%
#745000
1!
1.
0%
#750000
0!
0.
1%
#755000
1!
1.
0%
#760000
0!
0.
1%
#765000
1!
1.
0%
#770000
0"
0!
0-
0.
1%
0/
0$
#775000
1!
1.
0%
#780000
0!
0.
1%
#785000
1!
1.
0%
#790000
0!
0.
1%
#795000
1!
1.
0%
#800000
0#
0!
0,
0.
1%
#805000
1"
1!
1-
1.
0%
1/
1$
#810000
0!
0.
1%
0/
0$
#815000
1!
1.
0%
1/
1$
#820000
0!
0.
1%
0/
0$
#825000
1!
1.
0%
1/
1$
#830000
0!
0.
1%
0/
0$
#835000
1!
1.
0%
1/
1$
#840000
0"
0!
0-
0.
1%
0/
0$
#845000
1!
1.
0%
1/
1$
#850000
0!
0.
1%
0/
0$
#855000
1!
1.
0%
1/
1$
#860000
0!
0.
1%
0/
0$
#865000
1!
1.
0%
1/
1$
#870000
0!
0.
1%
0/
0$
