4th/counter_12/simulation/qsim/counter_12.msim.vcd
$comment
	File created using the following command:
		vcd file counter_12.msim.vcd -direction
$end
$date
	Tue Apr 10 21:49:19 2018
$end
$version
	ModelSim Version 10.1d
$end
$timescale
	1ps
$end
$scope module counter_12_vlg_vec_tst $end
$var reg 1 ! clk $end
$var reg 1 " nRst $end
$var wire 1 # digit_one [3] $end
$var wire 1 $ digit_one [2] $end
$var wire 1 % digit_one [1] $end
$var wire 1 & digit_one [0] $end
$var wire 1 ' digit_ten [3] $end
$var wire 1 ( digit_ten [2] $end
$var wire 1 ) digit_ten [1] $end
$var wire 1 * digit_ten [0] $end
$var wire 1 + sampler $end
$scope module i1 $end
$var wire 1 , gnd $end
$var wire 1 - vcc $end
$var wire 1 . unknown $end
$var tri1 1 / devclrn $end
$var tri1 1 0 devpor $end
$var tri1 1 1 devoe $end
$var wire 1 2 clk~combout $end
$var wire 1 3 clk~clkctrl_outclk $end
$var wire 1 4 count_one[0]~3_combout $end
$var wire 1 5 nRst~combout $end
$var wire 1 6 nRst~clkctrl_outclk $end
$var wire 1 7 Add1~1_combout $end
$var wire 1 8 count_one~1_combout $end
$var wire 1 9 Add1~2_combout $end
$var wire 1 : count_one~2_combout $end
$var wire 1 ; Equal0~0_combout $end
$var wire 1 < count_ten[2]~5_combout $end
$var wire 1 = count_ten[1]~3_combout $end
$var wire 1 > Add0~0_combout $end
$var wire 1 ? count_ten[3]~4_combout $end
$var wire 1 @ process_0~1_combout $end
$var wire 1 A count_ten~2_combout $end
$var wire 1 B process_0~0_combout $end
$var wire 1 C Add1~0_combout $end
$var wire 1 D count_one~0_combout $end
$var wire 1 E count_ten [3] $end
$var wire 1 F count_ten [2] $end
$var wire 1 G count_ten [1] $end
$var wire 1 H count_ten [0] $end
$var wire 1 I count_one [3] $end
$var wire 1 J count_one [2] $end
$var wire 1 K count_one [1] $end
$var wire 1 L count_one [0] $end
$upscope $end
$upscope $end
$enddefinitions $end
#0
$dumpvars
0!
1"
0&
1%
0$
0#
1*
0)
0(
0'
x+
0,
1-
x.
1/
10
11
02
03
14
15
16
07
08
09
0:
0;
0<
0=
0>
0?
1@
1A
1B
1C
1D
0H
0G
0F
0E
0L
0K
0J
0I
$end
#5000
1!
12
13
0+
1K
1H
1L
0B
0@
04
1&
0%
0*
0D
#10000
0!
02
03
1+
#15000
1!
12
13
0+
0K
0L
1@
14
0&
1%
#20000
0!
02
03
1+
#25000
1!
12
13
0+
1L
0C
0@
17
04
1&
1D
18
#30000
0!
02
03
1+
#35000
1!
12
13
0+
1K
1J
0L
1@
14
1$
0&
0%
#40000
0!
02
03
1+
#45000
1!
12
13
0+
1L
1C
0@
04
1&
0D
#50000
0!
02
03
1+
#55000
1!
12
13
0+
0K
0L
1@
14
0&
1%
#60000
0!
02
03
1+
#65000
1!
12
13
0+
1L
0C
0@
19
07
04
1&
1D
1:
08
#70000
0!
02
03
1+
#75000
1!
12
13
0+
1K
1I
0J
0L
1@
14
1#
0$
0&
0%
#80000
0!
02
03
1+
#85000
1!
12
13
0+
1L
1C
0@
1;
04
1&
0A
0:
#90000
0!
02
03
1+
#95000
1!
12
13
0+
0H
0I
0L
1A
1=
0;
09
0C
1@
14
0#
0&
1*
0A
0=
#100000
0!
02
03
1+
#105000
1!
12
13
0+
1L
1C
0@
04
1&
0D
#110000
0!
02
03
1+
#115000
1!
12
13
0+
0K
0L
1B
1@
14
0&
1%
1D
1A
#120000
0!
02
03
1+
#125000
1!
12
13
0+
1K
1H
1L
0B
0@
04
1&
0%
0*
0D
#130000
0!
02
03
1+
#135000
1!
12
13
0+
0K
0L
1@
14
0&
1%
#140000
0!
02
03
1+
#145000
1!
12
13
0+
1L
0C
0@
17
04
1&
1D
18
#150000
0!
02
03
1+
#155000
1!
12
13
0+
1K
1J
0L
1@
14
1$
0&
0%
#160000
0!
02
03
1+
#165000
1!
12
13
0+
1L
1C
0@
04
1&
0D
#170000
0!
02
03
1+
#175000
1!
12
13
0+
0K
0L
1@
14
0&
1%
#180000
0!
02
03
1+
#185000
1!
12
13
0+
1L
0C
0@
19
07
04
1&
1D
1:
08
#190000
0!
02
03
1+
#195000
1!
12
13
0+
1K
1I
0J
0L
1@
14
1#
0$
0&
0%
#200000
0!
02
03
1+
#205000
1!
12
13
0+
1L
1C
0@
1;
04
1&
0A
0:
#210000
0!
02
03
1+
#215000
1!
12
13
0+
0H
0I
0L
1A
1=
0;
09
0C
1@
14
0#
0&
1*
0A
0=
#220000
0!
02
03
1+
#225000
1!
12
13
0+
1L
1C
0@
04
1&
0D
#230000
0!
02
03
1+
#235000
1!
12
13
0+
0K
0L
1B
1@
14
0&
1%
1D
1A
#240000
0!
02
03
1+
#245000
1!
12
13
0+
1K
1H
1L
0B
0@
04
1&
0%
0*
0D
#250000
0!
02
03
1+
#255000
1!
12
13
0+
0K
0L
1@
14
0&
1%
#260000
0!
02
03
1+
#265000
1!
12
13
0+
1L
0C
0@
17
04
1&
1D
18
#270000
0!
02
03
1+
#275000
1!
12
13
0+
1K
1J
0L
1@
14
1$
0&
0%
#280000
0!
02
03
1+
#285000
1!
12
13
0+
1L
1C
0@
04
1&
0D
#290000
0!
02
03
1+
#295000
1!
12
13
0+
0K
0L
1@
14
0&
1%
#300000
0!
02
03
1+
#305000
1!
12
13
0+
1L
0C
0@
19
07
04
1&
1D
1:
08
#310000
0!
02
03
1+
#315000
1!
12
13
0+
1K
1I
0J
0L
1@
14
1#
0$
0&
0%
#320000
0!
02
03
1+
#325000
1!
12
13
0+
1L
1C
0@
1;
04
1&
0A
0:
#330000
0!
02
03
1+
#335000
1!
12
13
0+
0H
0I
0L
1A
1=
0;
09
0C
1@
14
0#
0&
1*
0A
0=
#340000
0!
02
03
1+
#345000
1!
12
13
0+
1L
1C
0@
04
1&
0D
#350000
0!
02
03
1+
#355000
1!
12
13
0+
0K
0L
1B
1@
14
0&
1%
1D
1A
#360000
0!
02
03
1+
#365000
1!
12
13
0+
1K
1H
1L
0B
0@
04
1&
0%
0*
0D
#370000
0!
02
03
1+
#375000
1!
12
13
0+
0K
0L
1@
14
0&
1%
#380000
0!
02
03
1+
#385000
1!
12
13
0+
1L
0C
0@
17
04
1&
1D
18
#390000
0!
02
03
1+
#395000
1!
12
13
0+
1K
1J
0L
1@
14
1$
0&
0%
#400000
0!
02
03
1+
#405000
1!
12
13
0+
1L
1C
0@
04
1&
0D
#410000
0!
02
03
1+
#415000
1!
12
13
0+
0K
0L
1@
14
0&
1%
#420000
0!
02
03
1+
#425000
1!
12
13
0+
1L
0C
0@
19
07
04
1&
1D
1:
08
#430000
0!
02
03
1+
#435000
1!
12
13
0+
1K
1I
0J
0L
1@
14
1#
0$
0&
0%
#440000
0!
02
03
1+
#445000
1!
12
13
0+
1L
1C
0@
1;
04
1&
0A
0:
#450000
0!
02
03
1+
#455000
1!
12
13
0+
0H
0I
0L
1A
1=
0;
09
0C
1@
14
0#
0&
1*
0A
0=
#460000
0!
02
03
1+
#465000
1!
12
13
0+
1L
1C
0@
04
1&
0D
#470000
0!
02
03
1+
#475000
1!
12
13
0+
0K
0L
1B
1@
14
0&
1%
1D
1A
#480000
0!
02
03
1+
#485000
1!
12
13
0+
1K
1H
1L
0B
0@
04
1&
0%
0*
0D
#490000
0!
02
03
1+
#495000
1!
12
13
0+
0K
0L
1@
14
0&
1%
#500000
0!
02
03
1+
#505000
1!
12
13
0+
1L
0C
0@
17
04
1&
1D
18
#510000
0!
02
03
1+
#515000
1!
12
13
0+
1K
1J
0L
1@
14
1$
0&
0%
#520000
0!
02
03
1+
#525000
1!
12
13
0+
1L
1C
0@
04
1&
0D
#530000
0!
02
03
1+
#535000
1!
12
13
0+
0K
0L
1@
14
0&
1%
#540000
0!
02
03
1+
#545000
1!
12
13
0+
1L
0C
0@
19
07
04
1&
1D
1:
08
#550000
0!
02
03
1+
#555000
1!
12
13
0+
1K
1I
0J
0L
1@
14
1#
0$
0&
0%
#560000
0!
02
03
1+
#565000
1!
12
13
0+
1L
1C
0@
1;
04
1&
0A
0:
#570000
0!
02
03
1+
#575000
1!
12
13
0+
0H
0I
0L
1A
1=
0;
09
0C
1@
14
0#
0&
1*
0A
0=
#580000
0!
02
03
1+
#585000
1!
12
13
0+
1L
1C
0@
04
1&
0D
#590000
0!
02
03
1+
#595000
1!
12
13
0+
0K
0L
1B
1@
14
0&
1%
1D
1A
#600000
0!
02
03
1+
#605000
1!
12
13
0+
1K
1H
1L
0B
0@
04
1&
0%
0*
0D
#610000
0!
02
03
1+
#615000
1!
12
13
0+
0K
0L
1@
14
0&
1%
#620000
0!
02
03
1+
#625000
1!
12
13
0+
1L
0C
0@
17
04
1&
1D
18
#630000
0!
02
03
1+
#635000
1!
12
13
0+
1K
1J
0L
1@
14
1$
0&
0%
#640000
0!
02
03
1+
#645000
1!
12
13
0+
1L
1C
0@
04
1&
0D
#650000
0!
02
03
1+
#655000
1!
12
13
0+
0K
0L
1@
14
0&
1%
#660000
0!
02
03
1+
#665000
1!
12
13
0+
1L
0C
0@
19
07
04
1&
1D
1:
08
#670000
0!
02
03
1+
#675000
1!
12
13
0+
1K
1I
0J
0L
1@
14
1#
0$
0&
0%
#680000
0!
02
03
1+
#685000
1!
12
13
0+
1L
1C
0@
1;
04
1&
0A
0:
#690000
0!
02
03
1+
#695000
1!
12
13
0+
0H
0I
0L
1A
1=
0;
09
0C
1@
14
0#
0&
1*
0A
0=
#700000
0!
02
03
1+
#705000
1!
12
13
0+
1L
1C
0@
04
1&
0D
#710000
0!
02
03
1+
#715000
1!
12
13
0+
0K
0L
1B
1@
14
0&
1%
1D
1A
#720000
0!
02
03
1+
#725000
1!
12
13
0+
1K
1H
1L
0B
0@
04
1&
0%
0*
0D
#730000
0!
02
03
1+
#735000
1!
12
13
0+
0K
0L
1@
14
0&
1%
#740000
0!
02
03
1+
#745000
1!
12
13
0+
1L
0C
0@
17
04
1&
1D
18
#750000
0!
02
03
1+
#755000
1!
12
13
0+
1K
1J
0L
1@
14
1$
0&
0%
#760000
0!
02
03
1+
#765000
1!
12
13
0+
1L
1C
0@
04
1&
0D
#770000
0!
02
03
1+
#775000
1!
12
13
0+
0K
0L
1@
14
0&
1%
#780000
0!
02
03
1+
#785000
1!
12
13
0+
1L
0C
0@
19
07
04
1&
1D
1:
08
#790000
0!
02
03
1+
#795000
1!
12
13
0+
1K
1I
0J
0L
1@
14
1#
0$
0&
0%
#800000
0!
02
03
1+
#805000
1!
12
13
0+
1L
1C
0@
1;
04
1&
0A
0:
#810000
0!
02
03
1+
#815000
1!
12
13
0+
0H
0I
0L
1A
1=
0;
09
0C
1@
14
0#
0&
1*
0A
0=
#820000
0!
02
03
1+
#825000
1!
12
13
0+
1L
1C
0@
04
1&
0D
#830000
0!
02
03
1+
#835000
1!
12
13
0+
0K
0L
1B
1@
14
0&
1%
1D
1A
#840000
0!
02
03
1+
#845000
1!
12
13
0+
1K
1H
1L
0B
0@
04
1&
0%
0*
0D
#850000
0!
02
03
1+
#855000
1!
12
13
0+
0K
0L
1@
14
0&
1%
#860000
0!
02
03
1+
#865000
1!
12
13
0+
1L
0C
0@
17
04
1&
1D
18
#870000
0!
02
03
1+
#875000
1!
12
13
0+
1K
1J
0L
1@
14
1$
0&
0%
#880000
0!
02
03
1+
#885000
1!
12
13
0+
1L
1C
0@
04
1&
0D
#890000
0!
02
03
1+
#895000
1!
12
13
0+
0K
0L
1@
14
0&
1%
#900000
0!
02
03
1+
#905000
1!
12
13
0+
1L
0C
0@
19
07
04
1&
1D
1:
08
#910000
0!
02
03
1+
#915000
1!
12
13
0+
1K
1I
0J
0L
1@
14
1#
0$
0&
0%
#920000
0!
02
03
1+
#925000
1!
12
13
0+
1L
1C
0@
1;
04
1&
0A
0:
#930000
0!
02
03
1+
#935000
1!
12
13
0+
0H
0I
0L
1A
1=
0;
09
0C
1@
14
0#
0&
1*
0A
0=
#940000
0!
02
03
1+
#945000
1!
12
13
0+
1L
1C
0@
04
1&
0D
#950000
0!
02
03
1+
#955000
1!
12
13
0+
0K
0L
1B
1@
14
0&
1%
1D
1A
#960000
0!
02
03
1+
#965000
1!
12
13
0+
1K
1H
1L
0B
0@
04
1&
0%
0*
0D
#970000
0!
02
03
1+
#975000
1!
12
13
0+
0K
0L
1@
14
0&
1%
#980000
0!
02
03
1+
#985000
1!
12
13
0+
1L
0C
0@
17
04
1&
1D
18
#990000
0!
02
03
1+
#995000
1!
12
13
0+
1K
1J
0L
1@
14
1$
0&
0%
