1st/VHDL/xor_gate/simulation/qsim/xor_gate.msim.vcd
$comment
	File created using the following command:
		vcd file xor_gate.msim.vcd -direction
$end
$date
	Fri Mar 16 19:11:04 2018
$end
$version
	ModelSim Version 10.1d
$end
$timescale
	1ps
$end
$scope module xor_gate_vlg_vec_tst $end
$var reg 1 ! A $end
$var reg 1 " B $end
$var wire 1 # Y $end
$var wire 1 $ sampler $end
$scope module i1 $end
$var wire 1 % gnd $end
$var wire 1 & vcc $end
$var wire 1 ' unknown $end
$var tri1 1 ( devclrn $end
$var tri1 1 ) devpor $end
$var tri1 1 * devoe $end
$var wire 1 + A~combout $end
$var wire 1 , B~combout $end
$var wire 1 - Y~0_combout $end
$upscope $end
$upscope $end
$enddefinitions $end
#0
$dumpvars
0!
0"
x#
x$
0%
1&
x'
1(
1)
1*
0+
0,
x-
$end
#629
0-
#5333
0#
#10000
1!
0$
#10999
1+
#11628
1-
#16332
1#
#20000
1"
0!
1$
#20999
0+
1,
#30000
1!
0$
#30999
1+
#31628
0-
#36332
0#
#40000
0"
0!
1$
#40999
0+
0,
