2nd/DeMultiplexer/VHDL/simulation/qsim/DEMUX_1x2.msim.vcd
$comment
	File created using the following command:
		vcd file DEMUX_1x2.msim.vcd -direction
$end
$date
	Mon Mar 19 18:17:00 2018
$end
$version
	ModelSim Version 10.1d
$end
$timescale
	1ps
$end
$scope module DEMUX_1x2_vlg_vec_tst $end
$var reg 1 ! A $end
$var reg 1 " SEL $end
$var wire 1 # Y1 $end
$var wire 1 $ Y2 $end
$var wire 1 % sampler $end
$scope module i1 $end
$var wire 1 & gnd $end
$var wire 1 ' vcc $end
$var wire 1 ( unknown $end
$var tri1 1 ) devclrn $end
$var tri1 1 * devpor $end
$var tri1 1 + devoe $end
$var wire 1 , SEL~combout $end
$var wire 1 - A~combout $end
$var wire 1 . Y1~0_combout $end
$var wire 1 / Y2~0_combout $end
$upscope $end
$upscope $end
$enddefinitions $end
#0
$dumpvars
0!
0"
0#
0$
x%
0&
1'
x(
1)
1*
1+
0,
0-
0.
0/
$end
#20000
1!
1"
1-
1,
0%
1/
1$
#30000
0!
0-
1%
0/
0$
#40000
0"
0,
0%
#60000
1"
1,
1%
#80000
0"
0,
0%
#90000
1!
1-
1%
1.
1#
#100000
1"
1,
0%
1/
0.
1$
0#
#110000
0!
0-
1%
0/
0$
#120000
0"
1!
0,
1-
0%
1.
1#
#130000
0!
0-
1%
0.
0#
#140000
1"
1,
0%
#150000
1!
1-
1%
1/
1$
#160000
0"
0!
0,
0-
0%
0/
0$
#180000
1"
1,
1%
#200000
1!
0"
1-
0,
0%
1.
1#
#210000
0!
0-
1%
0.
0#
#220000
1"
1,
0%
#240000
0"
0,
1%
