2nd/Decoder/VHDL/simulation/qsim/decoder_2x4.msim.vcd
$comment
	File created using the following command:
		vcd file decoder_2x4.msim.vcd -direction
$end
$date
	Mon Mar 19 18:45:24 2018
$end
$version
	ModelSim Version 10.1d
$end
$timescale
	1ps
$end
$scope module decoder_2x4_vlg_vec_tst $end
$var reg 1 ! A0 $end
$var reg 1 " A1 $end
$var wire 1 # Y1 $end
$var wire 1 $ Y2 $end
$var wire 1 % Y3 $end
$var wire 1 & Y4 $end
$var wire 1 ' sampler $end
$scope module i1 $end
$var wire 1 ( gnd $end
$var wire 1 ) vcc $end
$var wire 1 * unknown $end
$var tri1 1 + devclrn $end
$var tri1 1 , devpor $end
$var tri1 1 - devoe $end
$var wire 1 . A0~combout $end
$var wire 1 / A1~combout $end
$var wire 1 0 Y1~0_combout $end
$var wire 1 1 Y3~0_combout $end
$var wire 1 2 Y3~1_combout $end
$var wire 1 3 Y3~2_combout $end
$upscope $end
$upscope $end
$enddefinitions $end
#0
$dumpvars
0!
0"
1#
0$
0%
0&
x'
0(
1)
x*
1+
1,
1-
0.
0/
00
01
02
03
$end
#10000
1!
1.
0'
11
10
1$
0#
#20000
1"
0!
1/
0.
1'
12
01
1%
0$
#30000
1!
1.
0'
13
02
1&
0%
#40000
0"
0!
0/
0.
1'
03
00
0&
1#
#50000
1!
1.
0'
11
10
1$
0#
#60000
1"
0!
1/
0.
1'
12
01
1%
0$
#70000
1!
1.
0'
13
02
1&
0%
#80000
0"
0!
0/
0.
1'
03
00
0&
1#
#90000
1!
1.
0'
11
10
1$
0#
#100000
1"
0!
1/
0.
1'
12
01
1%
0$
#110000
1!
1.
0'
13
02
1&
0%
#120000
0"
0!
0/
0.
1'
03
00
0&
1#
#130000
1!
1.
0'
11
10
1$
0#
#140000
1"
0!
1/
0.
1'
12
01
1%
0$
#150000
1!
1.
0'
13
02
1&
0%
#160000
0"
0!
0/
0.
1'
03
00
0&
1#
#170000
1!
1.
0'
11
10
1$
0#
#180000
1"
0!
1/
0.
1'
12
01
1%
0$
#190000
1!
1.
0'
13
02
1&
0%
#200000
0"
0!
0/
0.
1'
03
00
0&
1#
#210000
1!
1.
0'
11
10
1$
0#
#220000
1"
0!
1/
0.
1'
12
01
1%
0$
#230000
1!
1.
0'
13
02
1&
0%
#240000
0"
0!
0/
0.
1'
03
00
0&
1#
